\relax 
\providecommand\hyper@newdestlabel[2]{}
\providecommand\HyperFirstAtBeginDocument{\AtBeginDocument}
\HyperFirstAtBeginDocument{\ifx\hyper@anchor\@undefined
\global\let\oldcontentsline\contentsline
\gdef\contentsline#1#2#3#4{\oldcontentsline{#1}{#2}{#3}}
\global\let\oldnewlabel\newlabel
\gdef\newlabel#1#2{\newlabelxx{#1}#2}
\gdef\newlabelxx#1#2#3#4#5#6{\oldnewlabel{#1}{{#2}{#3}}}
\AtEndDocument{\ifx\hyper@anchor\@undefined
\let\contentsline\oldcontentsline
\let\newlabel\oldnewlabel
\fi}
\fi}
\global\let\hyper@last\relax 
\gdef\HyperFirstAtBeginDocument#1{#1}
\providecommand\HyField@AuxAddToFields[1]{}
\providecommand\HyField@AuxAddToCoFields[2]{}
\citation{Fulling1973a,Hawking1974,Hawking1975,Unruh1977,Davies1975a}
\citation{Unruh1976a}
\citation{Takagi1986,Crispino2008}
\citation{Alsing2012}
\citation{Sciama1981}
\citation{Jacobson1995}
\citation{DeWitt1975,Davies1978,Sciama1981,Birrell1982,Takagi1986,Fulling1987,Ginzburg1987,Wald1994,Crispino2008}
\citation{Peres2004,Alsing2012}
\citation{Alsing2002,TERASHIMA2003,Peres2004,Czachor1997,Ahn2003,Massar2006,Ball2006a}
\citation{Peres2004,Peres2002,Alsing2002,Gingrich2002,Gingrich2003,Pachos2002}
\citation{Alsing2003b,Alsing2004,Fuentes-Schuller2005a,Alsing2006a,Bruschi2010,Bruschi2012b}
\citation{Alsing2003b}
\citation{Fuentes-Schuller2005a}
\citation{Reznik2003,Reznik2005,Lin2010,Olson2011}
\citation{Bruschi2012a,Friis2012,Friis2012a,Bruschi2013a,Friis2012b}
\citation{Lin2008,Lin2008a,Lin2009,Lin2015,Doukas2010}
\citation{Downes2013,Dragan2012,Dragan2013b,Doukas2013a,Richter2017,Ahmadi2016a,Grochowski2017,Debski2018}
\citation{Ahmadi2016a}
\citation{Ahmadi2016a}
\newlabel{FirstPage}{{}{1}{}{section*.1}{}}
\@writefile{toc}{\contentsline {title}{Two-mode Gaussian quantum states measured by collinearly and noncollinearly accelerating observers}{1}{section*.2}}
\@writefile{toc}{\contentsline {abstract}{Abstract}{1}{section*.1}}
\@writefile{toc}{\contentsline {section}{\numberline {I}Introduction}{1}{section*.3}}
\citation{Ahmadi2016a}
\citation{Ahmadi2016a}
\citation{Wald1984,Takagi1986,Crispino2008}
\citation{Ahmadi2016a}
\citation{Ahmadi2016a}
\citation{Ahmadi2016a}
\citation{Ahmadi2016a}
\citation{Crispino2008}
\newlabel{theframework}{{II}{2}{}{section*.4}{}}
\@writefile{toc}{\contentsline {section}{\numberline {II}The framework}{2}{section*.4}}
\@writefile{toc}{\contentsline {subsection}{\numberline {A}Outline}{2}{section*.5}}
\newlabel{SP}{{1}{2}{}{equation.2.1}{}}
\newlabel{phipsiexpa}{{2}{2}{}{equation.2.2}{}}
\@writefile{toc}{\contentsline {subsection}{\numberline {B}Modified Rindler coordinates and the field decomposition}{2}{section*.6}}
\newlabel{opus_b3_mod_Rindler}{{3}{2}{}{equation.2.3}{}}
\newlabel{u}{{4}{2}{}{equation.2.4}{}}
\citation{Ahmadi2016a}
\citation{Ahmadi2016a,Werner1989}
\citation{Schumaker1986}
\citation{Simon1988}
\@writefile{lof}{\contentsline {figure}{\numberline {1}{\ignorespaces  (Top) When Rindler wedges I and II do not have a common apex and the two regions do not overlap. (Center) When Rindler wedges I and II do not have a common apex and the two regions overlap. (Bottom) Parallel accelerations with an additional distance $D$. Two wedges do not posses a common apex and both observers accelerate in the same direction. Figure from Ref.\nobreakspace  {}\cite  {Ahmadi2016a}. }}{3}{figure.1}}
\newlabel{schemes}{{1}{3}{(Top) When Rindler wedges I and II do not have a common apex and the two regions do not overlap. (Center) When Rindler wedges I and II do not have a common apex and the two regions overlap. (Bottom) Parallel accelerations with an additional distance $D$. Two wedges do not posses a common apex and both observers accelerate in the same direction. Figure from Ref.~\cite {Ahmadi2016a}}{figure.1}{}}
\newlabel{w}{{6}{3}{}{equation.2.6}{}}
\newlabel{opus_dec_b_3d}{{8}{3}{}{equation.2.8}{}}
\newlabel{ddecb}{{9}{3}{}{equation.2.9}{}}
\@writefile{toc}{\contentsline {subsection}{\numberline {C}The Gaussian channel}{3}{section*.7}}
\newlabel{GC}{{10}{3}{}{equation.2.10}{}}
\newlabel{GCFM}{{10a}{3}{}{equation.2.10alph1}{}}
\newlabel{GCCM}{{10b}{3}{}{equation.2.10alph2}{}}
\citation{Ahmadi2016a}
\citation{Ahmadi2016a}
\newlabel{compchannel}{{III}{4}{}{section*.8}{}}
\@writefile{toc}{\contentsline {section}{\numberline {III}Computing the Gaussian quantum channel}{4}{section*.8}}
\newlabel{M}{{11}{4}{}{equation.3.11}{}}
\newlabel{N}{{12}{4}{}{equation.3.12}{}}
\newlabel{noise}{{13}{4}{}{equation.3.13}{}}
\newlabel{N1D0}{{14}{4}{}{equation.3.14}{}}
\newlabel{opus_N12general}{{15}{4}{}{equation.3.15}{}}
\newlabel{N12D0}{{16}{4}{}{equation.3.16}{}}
\newlabel{N12D0par}{{17}{4}{}{equation.3.17}{}}
\citation{Adesso2007a}
\newlabel{modechoice}{{IV}{5}{}{section*.9}{}}
\@writefile{toc}{\contentsline {section}{\numberline {IV}The choice of modes}{5}{section*.9}}
\newlabel{modephi}{{18}{5}{}{equation.4.18}{}}
\newlabel{vacent}{{V}{5}{}{section*.10}{}}
\@writefile{toc}{\contentsline {section}{\numberline {V}Entanglement of the vacuum}{5}{section*.10}}
\@writefile{lof}{\contentsline {figure}{\numberline {2}{\ignorespaces  Comparison of the spatial dependence in $z$-direction for the modes $\phi $ and $\psi $ for the following choice of parameters: $ {\cal  A} =0.1$, $L_{||}=L_\perp =2$, $\Omega _0=4.71$, $m=0.1$, $\kappa _\perp =2$, along the $z$-axis at $x=y=1$. }}{5}{figure.2}}
\newlabel{modes1}{{2}{5}{Comparison of the spatial dependence in $z$-direction for the modes $\phi $ and $\psi $ for the following choice of parameters: $\A =0.1$, $L_{||}=L_\pe =2$, $\Omega _0=4.71$, $m=0.1$, $\kappa _\pe =2$, along the $z$-axis at $x=y=1$}{figure.2}{}}
\newlabel{vacuumout}{{21}{5}{}{equation.5.21}{}}
\citation{Grochowski2017}
\citation{Ahmadi2016a}
\citation{Ahmadi2016a,Richter2017}
\citation{Crispino2008}
\citation{Ahmadi2016a,Richter2017}
\citation{Dragan2013b}
\citation{Ahmadi2016a,Ahmadi2017}
\newlabel{logneg}{{22}{6}{}{equation.5.22}{}}
\newlabel{logneg2}{{23}{6}{}{equation.5.23}{}}
\@writefile{lof}{\contentsline {figure}{\numberline {3}{\ignorespaces {Logarithmic negativity of the Minkowski vacuum for two counter-accelerated modes, as a function of $L_\perp $ and $\kappa _\perp $ for $D=0$. We have chosen $ {\cal  A} _\text  {I}= {\cal  A} _\text  {II}=0.1$, $L_{||}=2$, $m=0.1$, $\Omega _0=4.71$. }}}{6}{figure.3}}
\newlabel{fig_3d_plotac}{{3}{6}{Logarithmic negativity of the Minkowski vacuum for two counter-accelerated modes, as a function of $L_\pe $ and $\kappa _\pe $ for $D=0$. We have chosen $\A _\text {I}=\A _\text {II}=0.1$, $L_{||}=2$, $m=0.1$, $\Omega _0=4.71$. \label {fig_3d_plotac}}{figure.3}{}}
\newlabel{logneg3}{{24}{6}{}{equation.5.24}{}}
\@writefile{toc}{\contentsline {section}{\numberline {VI}Skew oriented accelerating observers}{7}{section*.11}}
\newlabel{r:2d}{{VI}{7}{}{section*.11}{}}
\@writefile{toc}{\contentsline {subsection}{\numberline {A}The setup}{7}{section*.12}}
\newlabel{skewsetup}{{VI\tmspace  +\thinmuskip {.1667em}A}{7}{}{section*.12}{}}
\@writefile{toc}{\contentsline {subsection}{\numberline {B}Characterization of the quantum channel}{7}{section*.13}}
\newlabel{N1D0s}{{25}{7}{}{equation.6.25}{}}
\@writefile{lof}{\contentsline {figure}{\numberline {4}{\ignorespaces {The setup in which we study the vacuum entanglement witnessed by two non-collinearly moving observers, Alice and Bob. Alice's trajectory (red curve) is kept fixed, as she uniformly accelerates across $y=0$ plane, making measurement with her detector at $t=0$ and at the position $z=1/ {\cal  A} $. Bob's trajectory (blue curve) is positioned at relative angle $\theta $ with respect to Alice as he also uses his detector at $t=0$. $\theta =\pi $ and $\theta =0$ cases reproduce previously studied counter- and co-accelerated scenarios, respectively. }}}{7}{figure.4}}
\newlabel{scen1}{{4}{7}{The setup in which we study the vacuum entanglement witnessed by two non-collinearly moving observers, Alice and Bob. Alice's trajectory (red curve) is kept fixed, as she uniformly accelerates across $y=0$ plane, making measurement with her detector at $t=0$ and at the position $z=1/\A $. Bob's trajectory (blue curve) is positioned at relative angle $\theta $ with respect to Alice as he also uses his detector at $t=0$. $\theta =\pi $ and $\theta =0$ cases reproduce previously studied counter- and co-accelerated scenarios, respectively. \label {scen1}}{figure.4}{}}
\newlabel{mprim}{{27}{7}{}{equation.6.27}{}}
\newlabel{rindler}{{28}{7}{}{equation.6.28}{}}
\citation{Ahmadi2016a}
\citation{Ahmadi2016a}
\newlabel{nota}{{29}{8}{}{equation.6.29}{}}
\@writefile{lof}{\contentsline {figure}{\numberline {5}{\ignorespaces {The wavepacket used in the skew observers setup. In the top its spatial profile and in the bottom -- its time derivative. }}}{8}{figure.5}}
\newlabel{wv}{{5}{8}{The wavepacket used in the skew observers setup. In the top its spatial profile and in the bottom -- its time derivative. \label {wv}}{figure.5}{}}
\newlabel{ns}{{30}{8}{}{equation.6.30}{}}
\newlabel{ds}{{31}{8}{}{equation.6.31}{}}
\newlabel{d2s}{{32}{8}{}{equation.6.32}{}}
\newlabel{ns12}{{33}{8}{}{equation.6.33}{}}
\@writefile{toc}{\contentsline {subsection}{\numberline {C}The choice of modes}{8}{section*.14}}
\citation{Gil2004}
\citation{Frigo1999}
\@writefile{toc}{\contentsline {subsection}{\numberline {D}Entanglement of the vacuum}{9}{section*.15}}
\newlabel{logneg4}{{34}{9}{}{equation.6.34}{}}
\@writefile{lof}{\contentsline {figure}{\numberline {6}{\ignorespaces {Logarithmic negativity for a scenario involving non-collinear trajectories of the accelerated observers. Due to numerical difficulties, we restrict ourselves to the regime of a small rotation between the observers. A limit $\theta =\pi $ can be identified as a previously considered counter-accelerated case and a limit $\theta =0$ as a co-accelerated case. We can see that logarithmic entanglement grows as the relative angle between two counter-accelerating observers gets smaller. }}}{9}{figure.6}}
\newlabel{lognegs}{{6}{9}{Logarithmic negativity for a scenario involving non-collinear trajectories of the accelerated observers. Due to numerical difficulties, we restrict ourselves to the regime of a small rotation between the observers. A limit $\theta =\pi $ can be identified as a previously considered counter-accelerated case and a limit $\theta =0$ as a co-accelerated case. We can see that logarithmic entanglement grows as the relative angle between two counter-accelerating observers gets smaller. \label {lognegs}}{figure.6}{}}
\newlabel{concl}{{VII}{9}{}{section*.16}{}}
\@writefile{toc}{\contentsline {section}{\numberline {VII}Conclusions}{9}{section*.16}}
\bibcite{Fulling1973a}{{1}{1973}{{Fulling}}{{}}}
\bibcite{Hawking1974}{{2}{1974}{{Hawking}}{{}}}
\bibcite{Hawking1975}{{3}{1975}{{Hawking}}{{}}}
\bibcite{Unruh1977}{{4}{1977}{{Unruh}}{{}}}
\bibcite{Davies1975a}{{5}{1975}{{Davies}}{{}}}
\bibcite{Unruh1976a}{{6}{1976}{{Unruh}}{{}}}
\bibcite{Takagi1986}{{7}{1986}{{Takagi}}{{}}}
\bibcite{Crispino2008}{{8}{2008}{{Crispino\ \emph  {et~al.}}}{{Crispino, Higuchi,\ and\ Matsas}}}
\bibcite{Alsing2012}{{9}{2012}{{Alsing\ and\ Fuentes}}{{}}}
\bibcite{Sciama1981}{{10}{1981}{{Sciama\ \emph  {et~al.}}}{{Sciama, Candelas,\ and\ Deutsch}}}
\bibcite{Jacobson1995}{{11}{1995}{{Jacobson}}{{}}}
\bibcite{DeWitt1975}{{12}{1975}{{DeWitt\ and\ S.}}{{}}}
\bibcite{Davies1978}{{13}{1978}{{Davies}}{{}}}
\bibcite{Birrell1982}{{14}{1982}{{Birrell\ and\ Davies}}{{}}}
\bibcite{Fulling1987}{{15}{1987}{{Fulling\ and\ Ruijsenaars}}{{}}}
\bibcite{Ginzburg1987}{{16}{1987}{{Ginzburg\ and\ Frolov}}{{}}}
\bibcite{Wald1994}{{17}{1994}{{Wald}}{{}}}
\bibcite{Peres2004}{{18}{2004}{{Peres\ and\ Terno}}{{}}}
\bibcite{Alsing2002}{{19}{2002}{{Alsing\ and\ Milburn}}{{}}}
\bibcite{TERASHIMA2003}{{20}{2003}{{Terashima\ and\ Ueda}}{{}}}
\bibcite{Czachor1997}{{21}{1997}{{Czachor}}{{}}}
\bibcite{Ahn2003}{{22}{2003}{{Ahn\ \emph  {et~al.}}}{{Ahn, Lee, Moon,\ and\ Hwang}}}
\bibcite{Massar2006}{{23}{2006}{{Massar\ and\ Spindel}}{{}}}
\bibcite{Ball2006a}{{24}{2006}{{Ball}}{{}}}
\bibcite{Peres2002}{{25}{2002}{{Peres\ \emph  {et~al.}}}{{Peres, Scudo,\ and\ Terno}}}
\bibcite{Gingrich2002}{{26}{2002}{{Gingrich\ and\ Adami}}{{}}}
\bibcite{Gingrich2003}{{27}{2003}{{Gingrich\ \emph  {et~al.}}}{{Gingrich, Bergou,\ and\ Adami}}}
\bibcite{Pachos2002}{{28}{2002}{{Pachos\ and\ Solano}}{{}}}
\bibcite{Alsing2003b}{{29}{2003}{{Alsing\ and\ Milburn}}{{}}}
\bibcite{Alsing2004}{{30}{2004}{{Alsing\ \emph  {et~al.}}}{{Alsing, McMahon,\ and\ Milburn}}}
\bibcite{Fuentes-Schuller2005a}{{31}{2005}{{Fuentes-Schuller\ and\ Mann}}{{}}}
\bibcite{Alsing2006a}{{32}{2006}{{Alsing\ \emph  {et~al.}}}{{Alsing, Fuentes-Schuller, Mann,\ and\ Tessier}}}
\bibcite{Bruschi2010}{{33}{2010}{{Bruschi\ \emph  {et~al.}}}{{Bruschi, Louko, Mart{\'{i}}n-Mart{\'{i}}nez, Dragan,\ and\ Fuentes}}}
\bibcite{Bruschi2012b}{{34}{2012{}}{{Bruschi\ \emph  {et~al.}}}{{Bruschi, Dragan, Fuentes,\ and\ Louko}}}
\bibcite{Reznik2003}{{35}{2003}{{Reznik}}{{}}}
\bibcite{Reznik2005}{{36}{2005}{{Reznik\ \emph  {et~al.}}}{{Reznik, Retzker,\ and\ Silman}}}
\bibcite{Lin2010}{{37}{2010}{{Lin\ and\ Hu}}{{}}}
\bibcite{Olson2011}{{38}{2011}{{Olson\ and\ Ralph}}{{}}}
\bibcite{Bruschi2012a}{{39}{2012{}}{{Bruschi\ \emph  {et~al.}}}{{Bruschi, Fuentes,\ and\ Louko}}}
\bibcite{Friis2012}{{40}{2012{}}{{Friis\ \emph  {et~al.}}}{{Friis, Bruschi, Louko,\ and\ Fuentes}}}
\bibcite{Friis2012a}{{41}{2012{}}{{Friis\ \emph  {et~al.}}}{{Friis, Lee, Bruschi,\ and\ Louko}}}
\bibcite{Bruschi2013a}{{42}{2013}{{Bruschi\ \emph  {et~al.}}}{{Bruschi, Dragan, Lee, Fuentes,\ and\ Louko}}}
\bibcite{Friis2012b}{{43}{2012}{{Friis\ and\ Fuentes}}{{}}}
\bibcite{Lin2008}{{44}{2008}{{Lin\ and\ Hu}}{{}}}
\bibcite{Lin2008a}{{45}{2008}{{Lin\ \emph  {et~al.}}}{{Lin, Chou,\ and\ Hu}}}
\bibcite{Lin2009}{{46}{2009}{{Lin\ and\ Hu}}{{}}}
\bibcite{Lin2015}{{47}{2015}{{Lin\ \emph  {et~al.}}}{{Lin, Chou,\ and\ Hu}}}
\bibcite{Doukas2010}{{48}{2010}{{Doukas\ and\ Carson}}{{}}}
\bibcite{Downes2013}{{49}{2013}{{Downes\ \emph  {et~al.}}}{{Downes, Ralph,\ and\ Walk}}}
\bibcite{Dragan2012}{{50}{2012}{{Dragan\ \emph  {et~al.}}}{{Dragan, Doukas, Martin-Martinez,\ and\ Bruschi}}}
\bibcite{Dragan2013b}{{51}{2013}{{Dragan\ \emph  {et~al.}}}{{Dragan, Doukas,\ and\ Mart{\'{i}}n-Mart{\'{i}}nez}}}
\bibcite{Doukas2013a}{{52}{2013}{{Doukas\ \emph  {et~al.}}}{{Doukas, Brown, Dragan,\ and\ Mann}}}
\bibcite{Richter2017}{{53}{2017}{{Richter\ \emph  {et~al.}}}{{Richter, Lorek, Dragan,\ and\ Omar}}}
\@writefile{toc}{\contentsline {section}{\numberline {}Acknowledgments}{10}{section*.17}}
\@writefile{toc}{\contentsline {section}{\numberline {}References}{10}{section*.18}}
\bibcite{Ahmadi2016a}{{54}{2016}{{Ahmadi\ \emph  {et~al.}}}{{Ahmadi, Lorek, Ch{\c {e}}ci{\'{n}}ska, Smith, Mann,\ and\ Dragan}}}
\bibcite{Grochowski2017}{{55}{2017}{{Grochowski\ \emph  {et~al.}}}{{Grochowski, Rajchel, Kia{\l }ka,\ and\ Dragan}}}
\bibcite{Debski2018}{{56}{2018}{{D\k {e}{}bski\ and\ Dragan}}{{}}}
\bibcite{Wald1984}{{57}{1984}{{Wald}}{{}}}
\bibcite{Werner1989}{{58}{1989}{{Werner}}{{}}}
\bibcite{Schumaker1986}{{59}{1986}{{Schumaker\ and\ L.}}{{}}}
\bibcite{Simon1988}{{60}{1988}{{Simon\ \emph  {et~al.}}}{{Simon, Sudarshan,\ and\ Mukunda}}}
\bibcite{Adesso2007a}{{61}{2007}{{Adesso}}{{}}}
\bibcite{Ahmadi2017}{{62}{2017}{{Ahmadi\ \emph  {et~al.}}}{{Ahmadi, Lorek, Ch{\c {e}}ci{\'{n}}ska, Smith, Mann,\ and\ Dragan}}}
\bibcite{Gil2004}{{63}{2004}{{Gil\ \emph  {et~al.}}}{{Gil, Segura,\ and\ Temme}}}
\bibcite{Frigo1999}{{64}{1999}{{Frigo}}{{}}}
\citation{Crispino2008}
\newlabel{LastBibItem}{{64}{11}{}{section*.18}{}}
\@writefile{toc}{\appendix }
\newlabel{computingnoise}{{A}{11}{}{section*.19}{}}
\@writefile{toc}{\contentsline {section}{\numberline {A}Computing the noise matrix $N$ in collinear case}{11}{section*.19}}
\@writefile{toc}{\contentsline {subsection}{\numberline {1}When Rindler wedges have a common apex ($D=0$)}{11}{section*.20}}
\newlabel{D0}{{A\tmspace  +\thinmuskip {.1667em}1}{11}{}{section*.20}{}}
\newlabel{bb9}{{A3}{11}{}{equation.A.3}{}}
\citation{Crispino2008}
\citation{Ahmadi2016a}
\newlabel{sigma1318}{{A8}{12}{}{equation.A.8}{}}
\@writefile{toc}{\contentsline {subsection}{\numberline {2}When Rindler wedges do not have a common apex ($D\not =0$)}{12}{section*.21}}
\newlabel{Dnon0}{{A\tmspace  +\thinmuskip {.1667em}2}{12}{}{section*.21}{}}
\citation{Ahmadi2016a}
\newlabel{modifiedbogos}{{A17}{13}{}{equation.A.17}{}}
\@writefile{toc}{\contentsline {subsection}{\numberline {3}The resulting off-diagonal terms}{13}{section*.22}}
\newlabel{offdiag}{{A\tmspace  +\thinmuskip {.1667em}3}{13}{}{section*.22}{}}
\newlabel{N12Dnon0}{{A21}{13}{}{equation.A.21}{}}
\newlabel{N12Dnon0par}{{A22}{13}{}{equation.A.22}{}}
\newlabel{computingnoise2}{{B}{14}{}{section*.23}{}}
\@writefile{toc}{\contentsline {section}{\numberline {B}Calculation of the cross elements in the noise matrix for the skew observers}{14}{section*.23}}
\newlabel{ders}{{B1}{14}{}{equation.B.1}{}}
\newlabel{ns21}{{B2}{14}{}{equation.B.2}{}}
\newlabel{ns212}{{B3}{14}{}{equation.B.3}{}}
\newlabel{ho}{{B4}{14}{}{equation.B.4}{}}
\newlabel{all1}{{B5}{14}{}{equation.B.5}{}}
\newlabel{nabs}{{B6}{14}{}{equation.B.6}{}}
\bibstyle{apsrev4-1}
\citation{REVTEX41Control}
\citation{apsrev41Control}
\newlabel{modepsi2}{{B7}{15}{}{equation.B.7}{}}
\newlabel{geez}{{B9}{15}{}{equation.B.9}{}}
\newlabel{pack}{{B10}{15}{}{equation.B.10}{}}
\newlabel{sadas}{{B11}{15}{}{equation.B.11}{}}
\newlabel{pl}{{B12}{15}{}{equation.B.12}{}}
\newlabel{min}{{B13}{15}{}{equation.B.13}{}}
\newlabel{LastPage}{{}{16}{}{}{}}
